Tue Apr 03 15:22:15 GMT+09:00 2018
java.lang.Exception: java.lang.Exception: java.util.zip.ZipException: duplicate entry: OUT-700-Y-2018-ORG-038-001-001508-DIS-000-DCK-00000-009-DOC-OSMP-FSB-0079-OUTNMB-0000000046.xml
	at ru.pfrf.process.ReceivingOSMP.toArchive(ReceivingOSMP.java:508)
	at ru.pfrf.process.ReceivingOSMP.exec(ReceivingOSMP.java:421)
	at ru.pfrf.process.Process.start(Process.java:98)
	at main.task.TaskReceivOSMP.run(TaskReceivOSMP.java:81)
Caused by: java.lang.Exception: java.util.zip.ZipException: duplicate entry: OUT-700-Y-2018-ORG-038-001-001508-DIS-000-DCK-00000-009-DOC-OSMP-FSB-0079-OUTNMB-0000000046.xml
	at ru.pfrf.process.ReceivingOSMP.toArchive(ReceivingOSMP.java:503)
	... 3 more
Caused by: java.util.zip.ZipException: duplicate entry: OUT-700-Y-2018-ORG-038-001-001508-DIS-000-DCK-00000-009-DOC-OSMP-FSB-0079-OUTNMB-0000000046.xml
	at java.util.zip.ZipOutputStream.putNextEntry(Unknown Source)
	at ru.pfrf.process.ReceivingOSMP.toArchive(ReceivingOSMP.java:496)
	... 3 more
